{
  "defaultSeverity": "error",
  "extends": ["tslint:recommended", "tslint-config-prettier"],
  "jsRules": {},
  "rules": {
    "interface-name": false,
    "member-ordering": false,
    "object-literal-sort-keys": false,
    "no-bitwise": false
  },
  "rulesDirectory": []
}
